<?xml version="1.0" encoding="UTF-8" standalone="no"?>
<!-- Created with Inkscape (http://www.inkscape.org/) -->

<svg
   xmlns:dc="http://purl.org/dc/elements/1.1/"
   xmlns:cc="http://creativecommons.org/ns#"
   xmlns:rdf="http://www.w3.org/1999/02/22-rdf-syntax-ns#"
   xmlns:svg="http://www.w3.org/2000/svg"
   xmlns="http://www.w3.org/2000/svg"
   xmlns:sodipodi="http://sodipodi.sourceforge.net/DTD/sodipodi-0.dtd"
   xmlns:inkscape="http://www.inkscape.org/namespaces/inkscape"
   width="109.90072mm"
   height="109.90071mm"
   viewBox="0 0 109.90072 109.90071"
   version="1.1"
   id="svg1636"
   inkscape:version="0.92.2 (5c3e80d, 2017-08-06)"
   sodipodi:docname="git-portal-orange.svg">
  <defs
     id="defs1630">
    <clipPath
       id="clip1">
      <path
         id="path834"
         d="M 0,0.00390625 H 91.886719 V 91.890625 H 0 Z m 0,0"
         inkscape:connector-curvature="0" />
    </clipPath>
  </defs>
  <sodipodi:namedview
     id="base"
     pagecolor="#ffffff"
     bordercolor="#666666"
     borderopacity="1.0"
     inkscape:pageopacity="0.0"
     inkscape:pageshadow="2"
     inkscape:zoom="0.35"
     inkscape:cx="221.97209"
     inkscape:cy="-38.027896"
     inkscape:document-units="mm"
     inkscape:current-layer="layer1"
     showgrid="false"
     fit-margin-top="0"
     fit-margin-left="0"
     fit-margin-right="0"
     fit-margin-bottom="0"
     inkscape:window-width="1920"
     inkscape:window-height="1016"
     inkscape:window-x="0"
     inkscape:window-y="27"
     inkscape:window-maximized="1" />
  <metadata
     id="metadata1633">
    <rdf:RDF>
      <cc:Work
         rdf:about="">
        <dc:format>image/svg+xml</dc:format>
        <dc:type
           rdf:resource="http://purl.org/dc/dcmitype/StillImage" />
        <dc:title></dc:title>
      </cc:Work>
    </rdf:RDF>
  </metadata>
  <g
     inkscape:label="Layer 1"
     inkscape:groupmode="layer"
     id="layer1"
     transform="translate(107.86702,-28.871071)">
    <g
       id="g1460"
       transform="matrix(1.1960457,0,0,1.1960457,-107.86702,28.866399)"
       style="fill:#f03a2b;fill-opacity:1">
      <g
         id="g1458"
         clip-path="url(#clip1)"
         style="clip-rule:nonzero;fill:#f03a2b;fill-opacity:1">
        <path
           style="fill:#f03a2b;fill-opacity:1;fill-rule:nonzero;stroke:none;stroke-width:4.52048779"
           d="m 2136.0918,1054.1152 -256.4785,0.012 c -14.7712,-0.013 -26.7578,11.9741 -26.7578,26.7578 v 79.414 l -0.014,175.8672 c 0.013,14.7712 11.9991,26.7578 26.7578,26.7578 l 256.4805,-0.012 c 14.7836,0 26.7578,-11.9741 26.7578,-26.7578 l 0.012,-255.2813 c -0.012,-14.7711 -11.9991,-26.7578 -26.7578,-26.7578 z m -138.2461,51.1778 h 27.0391 c 0,68.802 -0.2238,137.8547 0.1035,206.6562 l -28.6895,0.7227 c 0.2666,-65.6843 1.7072,-133.8941 1.5469,-207.3789 z m -41.2695,77.9843 c 6.6601,-0.097 13.0757,2.5065 17.7851,7.2168 9.6233,9.6236 9.6233,25.2261 0,34.8497 -9.6238,9.6245 -25.2277,9.6245 -34.8515,0 -1.0061,-1.008 -1.923,-2.1013 -2.7403,-3.2676 h -56.7383 v -26.7207 h 55.7403 c 1.0388,-1.7698 2.2946,-3.4029 3.7383,-4.8614 4.5333,-4.5342 10.6554,-7.123 17.0664,-7.2168 z m 86.289,11.8789 89.4847,0.8932 -0.8929,25.8276 h -88.5918 z"
           transform="matrix(0.15642268,0.15642268,-0.15642268,0.15642268,-79.089407,-457.16525)"
           id="path1456"
           inkscape:connector-curvature="0"
           sodipodi:nodetypes="ccscccccccccccccccccccccccccccc" />
      </g>
    </g>
  </g>
</svg>
